<?xml version="1.0" encoding="UTF-8" standalone="no"?>
<!-- Created with Inkscape (http://www.inkscape.org/) -->

<svg
   xmlns:dc="http://purl.org/dc/elements/1.1/"
   xmlns:cc="http://creativecommons.org/ns#"
   xmlns:rdf="http://www.w3.org/1999/02/22-rdf-syntax-ns#"
   xmlns:svg="http://www.w3.org/2000/svg"
   xmlns="http://www.w3.org/2000/svg"
   xmlns:sodipodi="http://sodipodi.sourceforge.net/DTD/sodipodi-0.dtd"
   xmlns:inkscape="http://www.inkscape.org/namespaces/inkscape"
   id="svg6106"
   version="1.1"
   inkscape:version="0.91 r13725"
   width="290.155"
   height="69.375748">
  <metadata
     id="metadata6112">
    <rdf:RDF>
      <cc:Work
         rdf:about="">
        <dc:format>image/svg+xml</dc:format>
        <dc:type
           rdf:resource="http://purl.org/dc/dcmitype/StillImage" />
      </cc:Work>
    </rdf:RDF>
  </metadata>
  <defs
     id="defs6110">
    <clipPath
       id="clipPath780"
       clipPathUnits="userSpaceOnUse">
      <path
         inkscape:connector-curvature="0"
         id="path782"
         d="m 11485,6431.02 c -459.9,445.97 -919.8,-445.97 -1379.7,0 0,250.5 0,501.05 0,751.53 459.9,-445.95 919.8,445.99 1379.7,0 -111.9,-16.78 -223.7,-112.7 -335.6,-249.28 111.9,-113.92 223.7,-268.52 335.6,-502.25 z" />
    </clipPath>
    <linearGradient
       id="linearGradient784"
       spreadMethod="pad"
       gradientTransform="matrix(1350.59,324.66,324.66,-1350.59,10144.3,6650.35)"
       gradientUnits="userSpaceOnUse"
       y2="0"
       x2="1"
       y1="0"
       x1="0">
      <stop
         id="stop786"
         offset="0"
         style="stop-opacity:1;stop-color:#976e32" />
      <stop
         id="stop788"
         offset="0.0545455"
         style="stop-opacity:1;stop-color:#dfaf51" />
      <stop
         id="stop790"
         offset="0.2"
         style="stop-opacity:1;stop-color:#8f642d" />
      <stop
         id="stop792"
         offset="0.515152"
         style="stop-opacity:1;stop-color:#f0e96f" />
      <stop
         id="stop794"
         offset="0.787879"
         style="stop-opacity:1;stop-color:#804f21" />
      <stop
         id="stop796"
         offset="0.951515"
         style="stop-opacity:1;stop-color:#e1b052" />
      <stop
         id="stop798"
         offset="1"
         style="stop-opacity:1;stop-color:#764023" />
    </linearGradient>
    <clipPath
       id="clipPath806"
       clipPathUnits="userSpaceOnUse">
      <path
         inkscape:connector-curvature="0"
         id="path808"
         d="m 10832.1,6794.4 c -89.4,-127.95 -485.4,-476.38 -726.8,-363.38 0,250.5 0,501.05 0,751.53 241.4,-113 485.4,126.08 726.8,363.42 -37,-269.3 0,-501.03 0,-751.57 z" />
    </clipPath>
    <linearGradient
       id="linearGradient810"
       spreadMethod="pad"
       gradientTransform="matrix(794.618,39.3394,39.3394,-794.618,10051.6,6953.92)"
       gradientUnits="userSpaceOnUse"
       y2="0"
       x2="1"
       y1="0"
       x1="0">
      <stop
         id="stop812"
         offset="0"
         style="stop-opacity:1;stop-color:#1f140f" />
      <stop
         id="stop814"
         offset="0.418182"
         style="stop-opacity:1;stop-color:#653e25" />
      <stop
         id="stop816"
         offset="0.587879"
         style="stop-opacity:1;stop-color:#804f21" />
      <stop
         id="stop818"
         offset="0.987879"
         style="stop-opacity:1;stop-color:#1f140f" />
      <stop
         id="stop820"
         offset="1"
         style="stop-opacity:1;stop-color:#1f140f" />
    </linearGradient>
    <clipPath
       id="clipPath828"
       clipPathUnits="userSpaceOnUse">
      <path
         inkscape:connector-curvature="0"
         id="path830"
         d="m 6457.45,6431.02 c 463.22,-445.97 926.46,445.97 1389.67,0 0,250.5 0,501.05 0,751.53 -463.21,445.99 -926.45,-445.95 -1389.67,0 91.17,-217.12 182.33,-382.48 273.51,-516.38 -91.18,-116.62 -182.34,-201.79 -273.51,-235.15 z" />
    </clipPath>
    <linearGradient
       id="linearGradient832"
       spreadMethod="pad"
       gradientTransform="matrix(1493.45,376.606,376.606,-1493.45,6421.89,6622.6)"
       gradientUnits="userSpaceOnUse"
       y2="0"
       x2="1"
       y1="0"
       x1="0">
      <stop
         id="stop834"
         offset="0"
         style="stop-opacity:1;stop-color:#976e32" />
      <stop
         id="stop836"
         offset="0.0545455"
         style="stop-opacity:1;stop-color:#dfaf51" />
      <stop
         id="stop838"
         offset="0.2"
         style="stop-opacity:1;stop-color:#8f642d" />
      <stop
         id="stop840"
         offset="0.515152"
         style="stop-opacity:1;stop-color:#f0e96f" />
      <stop
         id="stop842"
         offset="0.787879"
         style="stop-opacity:1;stop-color:#804f21" />
      <stop
         id="stop844"
         offset="0.951515"
         style="stop-opacity:1;stop-color:#e1b052" />
      <stop
         id="stop846"
         offset="1"
         style="stop-opacity:1;stop-color:#764023" />
    </linearGradient>
    <clipPath
       id="clipPath854"
       clipPathUnits="userSpaceOnUse">
      <path
         inkscape:connector-curvature="0"
         id="path856"
         d="m 7114.78,6794.4 c 243.2,-4.91 489.16,-8.1 732.34,-363.38 0,250.5 0,501.05 0,751.53 -364.79,188.34 -476.03,231.41 -729.57,346.73 76.03,-306.29 31.96,-485.03 -2.77,-734.88 z" />
    </clipPath>
    <linearGradient
       id="linearGradient858"
       spreadMethod="pad"
       gradientTransform="matrix(705.702,-23.5246,-23.5246,-705.702,7234.87,6988.4)"
       gradientUnits="userSpaceOnUse"
       y2="0"
       x2="1"
       y1="0"
       x1="0">
      <stop
         id="stop860"
         offset="0"
         style="stop-opacity:1;stop-color:#1f140f" />
      <stop
         id="stop862"
         offset="0.012121"
         style="stop-opacity:1;stop-color:#1f140f" />
      <stop
         id="stop864"
         offset="0.260606"
         style="stop-opacity:1;stop-color:#804f21" />
      <stop
         id="stop866"
         offset="0.4"
         style="stop-opacity:1;stop-color:#653e25" />
      <stop
         id="stop868"
         offset="1"
         style="stop-opacity:1;stop-color:#1f140f" />
    </linearGradient>
    <clipPath
       id="clipPath972"
       clipPathUnits="userSpaceOnUse">
      <path
         inkscape:connector-curvature="0"
         id="path974"
         d="m 10832.1,7456.96 4.3,21.46 c -1.4,0.3 -2.8,0.61 -4.3,0.92 0,22.2 0,44.4 0,66.63 -554.2,134.47 -1108.53,88.45 -1662.8,23.48 -65.3,-7.69 -130.56,-15.57 -195.84,-23.48 -619.57,-75.17 -1239.12,-150.32 -1858.68,0 0,-34.35 0,-68.68 0,-103.01 l -1.15,-6.15 c 0.37,-0.08 0.77,-0.17 1.15,-0.25 0,-189.21 0,-378.41 0,-567.62 l -1.39,-6.98 c 0.46,-0.1 0.95,-0.19 1.39,-0.31 0,-22.4 0,-44.84 0,-67.25 619.56,-150.32 1239.11,-75.13 1858.68,0 65.28,7.93 130.54,15.84 195.84,23.48 554.27,65.02 1108.6,111.01 1662.8,-23.48 0,29.19 0,58.35 0,87.53 l 4.1,21.62 c -1.3,0.28 -2.7,0.56 -4.1,0.83 0,184.2 0,368.38 0,552.58 z" />
    </clipPath>
    <linearGradient
       id="linearGradient976"
       spreadMethod="pad"
       gradientTransform="matrix(3723.06,0,0,-3723.06,7113.39,7170.18)"
       gradientUnits="userSpaceOnUse"
       y2="0"
       x2="1"
       y1="0"
       x1="0">
      <stop
         id="stop978"
         offset="0"
         style="stop-opacity:1;stop-color:#3a1e16" />
      <stop
         id="stop980"
         offset="0.0280899"
         style="stop-opacity:1;stop-color:#3a1e16" />
      <stop
         id="stop982"
         offset="0.230337"
         style="stop-opacity:1;stop-color:#d99941" />
      <stop
         id="stop984"
         offset="0.297753"
         style="stop-opacity:1;stop-color:#9f6d30" />
      <stop
         id="stop986"
         offset="0.387879"
         style="stop-opacity:1;stop-color:#e3b254" />
      <stop
         id="stop988"
         offset="0.668539"
         style="stop-opacity:1;stop-color:#eee66f" />
      <stop
         id="stop990"
         offset="0.797753"
         style="stop-opacity:1;stop-color:#966f28" />
      <stop
         id="stop992"
         offset="0.955056"
         style="stop-opacity:1;stop-color:#221411" />
      <stop
         id="stop994"
         offset="1"
         style="stop-opacity:1;stop-color:#221411" />
    </linearGradient>
    <clipPath
       id="clipPath1002"
       clipPathUnits="userSpaceOnUse">
      <path
         inkscape:connector-curvature="0"
         id="path1004"
         d="m 10832.1,6904.38 c 0,184.2 0,368.38 0,552.58 l 4.3,21.46 c -1.4,0.3 -2.8,0.6 -4.3,0.91 0,22.2 0,44.41 0,66.64 -554.2,134.47 -1108.53,88.45 -1662.8,23.48 -65.3,-7.69 -130.56,-15.57 -195.84,-23.48 -619.57,-75.17 -1239.12,-150.32 -1858.68,0 0,-34.35 0,-68.68 0,-103.01 l -1.15,-6.15 c 0.37,-0.08 0.77,-0.17 1.15,-0.25 0,-189.21 0,-378.41 0,-567.62 l -1.39,-6.98 c 0.46,-0.1 0.95,-0.19 1.39,-0.31 0,-22.4 0,-44.84 0,-67.25 619.56,-150.32 1239.11,-75.13 1858.68,0 65.28,7.93 130.54,15.84 195.84,23.48 554.27,65.02 1108.6,111.01 1662.8,-23.48 0,29.19 0,58.35 0,87.53 l 4.1,21.62 c -1.3,0.28 -2.7,0.56 -4.1,0.83 z" />
    </clipPath>
    <linearGradient
       id="linearGradient1006"
       spreadMethod="pad"
       gradientTransform="matrix(3723.06,0,0,-3723.06,7113.39,7170.18)"
       gradientUnits="userSpaceOnUse"
       y2="0"
       x2="1"
       y1="0"
       x1="0">
      <stop
         id="stop1008"
         offset="0"
         style="stop-opacity:1;stop-color:#3a1e16" />
      <stop
         id="stop1010"
         offset="0.0280899"
         style="stop-opacity:1;stop-color:#3a1e16" />
      <stop
         id="stop1012"
         offset="0.230337"
         style="stop-opacity:1;stop-color:#d99941" />
      <stop
         id="stop1014"
         offset="0.297753"
         style="stop-opacity:1;stop-color:#9f6d30" />
      <stop
         id="stop1016"
         offset="0.331461"
         style="stop-opacity:1;stop-color:#7d4d23" />
      <stop
         id="stop1018"
         offset="0.61236"
         style="stop-opacity:1;stop-color:#e3b254" />
      <stop
         id="stop1020"
         offset="0.668539"
         style="stop-opacity:1;stop-color:#eee66f" />
      <stop
         id="stop1022"
         offset="0.797753"
         style="stop-opacity:1;stop-color:#966f28" />
      <stop
         id="stop1024"
         offset="0.955056"
         style="stop-opacity:1;stop-color:#221411" />
      <stop
         id="stop1026"
         offset="1"
         style="stop-opacity:1;stop-color:#221411" />
    </linearGradient>
    <clipPath
       id="clipPath1034"
       clipPathUnits="userSpaceOnUse">
      <path
         inkscape:connector-curvature="0"
         id="path1036"
         d="m 7114.78,7545.97 c 0,-250.51 0,-501.03 0,-751.57 619.56,-150.32 1239.11,-75.13 1858.68,0 l 0,751.57 c -619.57,-75.17 -1239.12,-150.32 -1858.68,0 z" />
    </clipPath>
    <linearGradient
       id="linearGradient1038"
       spreadMethod="pad"
       gradientTransform="matrix(1858.67,0,0,-1858.67,7114.78,7126.79)"
       gradientUnits="userSpaceOnUse"
       y2="0"
       x2="1"
       y1="0"
       x1="0">
      <stop
         id="stop1040"
         offset="0"
         style="stop-opacity:1;stop-color:#1f140f" />
      <stop
         id="stop1042"
         offset="0.018182"
         style="stop-opacity:1;stop-color:#764023" />
      <stop
         id="stop1044"
         offset="0.078788"
         style="stop-opacity:1;stop-color:#e1b052" />
      <stop
         id="stop1046"
         offset="0.163636"
         style="stop-opacity:1;stop-color:#804f21" />
      <stop
         id="stop1048"
         offset="0.515152"
         style="stop-opacity:1;stop-color:#f0e96f" />
      <stop
         id="stop1050"
         offset="0.945454"
         style="stop-opacity:1;stop-color:#dfaf51" />
      <stop
         id="stop1052"
         offset="1"
         style="stop-opacity:1;stop-color:#dfaf51" />
    </linearGradient>
    <clipPath
       id="clipPath1060"
       clipPathUnits="userSpaceOnUse">
      <path
         inkscape:connector-curvature="0"
         id="path1062"
         d="m 9169.3,7569.45 c -65.3,-7.69 -130.56,-15.57 -195.84,-23.48 l 0,-751.57 c 65.28,7.93 130.54,15.84 195.84,23.48 554.27,65.02 1108.6,111.01 1662.8,-23.48 0,250.54 0,501.06 0,751.57 -554.2,134.47 -1108.53,88.45 -1662.8,23.48 z" />
    </clipPath>
    <linearGradient
       id="linearGradient1064"
       spreadMethod="pad"
       gradientTransform="matrix(1858.69,0,0,-1858.69,8973.46,7213.56)"
       gradientUnits="userSpaceOnUse"
       y2="0"
       x2="1"
       y1="0"
       x1="0">
      <stop
         id="stop1066"
         offset="0"
         style="stop-opacity:1;stop-color:#dfaf51" />
      <stop
         id="stop1068"
         offset="0.0545455"
         style="stop-opacity:1;stop-color:#dfaf51" />
      <stop
         id="stop1070"
         offset="0.484848"
         style="stop-opacity:1;stop-color:#f0e96f" />
      <stop
         id="stop1072"
         offset="0.836364"
         style="stop-opacity:1;stop-color:#804f21" />
      <stop
         id="stop1074"
         offset="0.921212"
         style="stop-opacity:1;stop-color:#e1b052" />
      <stop
         id="stop1076"
         offset="0.981818"
         style="stop-opacity:1;stop-color:#764023" />
      <stop
         id="stop1078"
         offset="1"
         style="stop-opacity:1;stop-color:#1f140f" />
    </linearGradient>
  </defs>
  <sodipodi:namedview
     pagecolor="#ffffff"
     bordercolor="#666666"
     borderopacity="1"
     objecttolerance="10"
     gridtolerance="10"
     guidetolerance="10"
     inkscape:pageopacity="0"
     inkscape:pageshadow="2"
     inkscape:window-width="640"
     inkscape:window-height="480"
     id="namedview6108" />
  <inkscape:clipboard
     style="color:#000000;clip-rule:nonzero;display:inline;overflow:visible;visibility:visible;opacity:0.83399999;isolation:auto;mix-blend-mode:normal;color-interpolation:sRGB;color-interpolation-filters:linearRGB;solid-color:#000000;solid-opacity:1;fill:#000000;fill-opacity:1;fill-rule:nonzero;stroke-width:1px;stroke-linecap:butt;stroke-linejoin:miter;stroke-miterlimit:4;stroke-dasharray:none;stroke-dashoffset:0;stroke-opacity:1;filter-blend-mode:normal;filter-gaussianBlur-deviation:0;color-rendering:auto;image-rendering:auto;shape-rendering:auto;text-rendering:auto;enable-background:accumulate;stroke:none"
     min="129.20822,793.88356"
     max="419.36321,863.25931" />
  <g
     style="opacity:0.83399999"
     transform="translate(-133.61397,-835.42237)"
     id="g7023">
    <g
       id="g6924"
       transform="matrix(0.46170401,0,0,0.41715477,-10.030559,557.93152)">
      <g
         id="g776"
         transform="matrix(0.125,0,0,-0.125,-496.06303,1619.2907)">
        <g
           clip-path="url(#clipPath780)"
           id="g778">
          <path
             inkscape:connector-curvature="0"
             id="path800"
             style="fill:url(#linearGradient784);fill-opacity:1;fill-rule:nonzero;stroke:none"
             d="m 11485,6431.02 c -459.9,445.97 -919.8,-445.97 -1379.7,0 0,250.5 0,501.05 0,751.53 459.9,-445.95 919.8,445.99 1379.7,0 -111.9,-16.78 -223.7,-112.7 -335.6,-249.28 111.9,-113.92 223.7,-268.52 335.6,-502.25" />
        </g>
      </g>
      <g
         id="g802"
         transform="matrix(0.125,0,0,-0.125,-496.06303,1619.2907)">
        <g
           clip-path="url(#clipPath806)"
           id="g804">
          <path
             inkscape:connector-curvature="0"
             id="path822"
             style="fill:url(#linearGradient810);fill-opacity:1;fill-rule:nonzero;stroke:none"
             d="m 10832.1,6794.4 c -89.4,-127.95 -485.4,-476.38 -726.8,-363.38 0,250.5 0,501.05 0,751.53 241.4,-113 485.4,126.08 726.8,363.42 -37,-269.3 0,-501.03 0,-751.57" />
        </g>
      </g>
      <g
         id="g824"
         transform="matrix(0.125,0,0,-0.125,-496.06303,1619.2907)">
        <g
           clip-path="url(#clipPath828)"
           id="g826">
          <path
             inkscape:connector-curvature="0"
             id="path848"
             style="fill:url(#linearGradient832);fill-opacity:1;fill-rule:nonzero;stroke:none"
             d="m 6457.45,6431.02 c 463.22,-445.97 926.46,445.97 1389.67,0 0,250.5 0,501.05 0,751.53 -463.21,445.99 -926.45,-445.95 -1389.67,0 91.17,-217.12 182.33,-382.48 273.51,-516.38 -91.18,-116.62 -182.34,-201.79 -273.51,-235.15" />
        </g>
      </g>
      <g
         id="g850"
         transform="matrix(0.125,0,0,-0.125,-496.06303,1619.2907)">
        <g
           clip-path="url(#clipPath854)"
           id="g852">
          <path
             inkscape:connector-curvature="0"
             id="path870"
             style="fill:url(#linearGradient858);fill-opacity:1;fill-rule:nonzero;stroke:none"
             d="m 7114.78,6794.4 c 243.2,-4.91 489.16,-8.1 732.34,-363.38 0,250.5 0,501.05 0,751.53 -364.79,188.34 -476.03,231.41 -729.57,346.73 76.03,-306.29 31.96,-485.03 -2.77,-734.88" />
        </g>
      </g>
      <g
         id="g968"
         transform="matrix(0.125,0,0,-0.125,-496.06303,1619.2907)">
        <g
           clip-path="url(#clipPath972)"
           id="g970">
          <path
             inkscape:connector-curvature="0"
             id="path996"
             style="fill:url(#linearGradient976);fill-opacity:1;fill-rule:nonzero;stroke:none"
             d="m 10832.1,7456.96 4.3,21.46 c -1.4,0.3 -2.8,0.61 -4.3,0.92 0,22.2 0,44.4 0,66.63 -554.2,134.47 -1108.53,88.45 -1662.8,23.48 -65.3,-7.69 -130.56,-15.57 -195.84,-23.48 -619.57,-75.17 -1239.12,-150.32 -1858.68,0 0,-34.35 0,-68.68 0,-103.01 l -1.15,-6.15 c 0.37,-0.08 0.77,-0.17 1.15,-0.25 0,-189.21 0,-378.41 0,-567.62 l -1.39,-6.98 c 0.46,-0.1 0.95,-0.19 1.39,-0.31 0,-22.4 0,-44.84 0,-67.25 619.56,-150.32 1239.11,-75.13 1858.68,0 65.28,7.93 130.54,15.84 195.84,23.48 554.27,65.02 1108.6,111.01 1662.8,-23.48 0,29.19 0,58.35 0,87.53 l 4.1,21.62 c -1.3,0.28 -2.7,0.56 -4.1,0.83 0,184.2 0,368.38 0,552.58" />
        </g>
      </g>
      <g
         id="g998"
         transform="matrix(0.125,0,0,-0.125,-496.06303,1619.2907)">
        <g
           clip-path="url(#clipPath1002)"
           id="g1000">
          <path
             inkscape:connector-curvature="0"
             id="path1028"
             style="fill:url(#linearGradient1006);fill-opacity:1;fill-rule:nonzero;stroke:none"
             d="m 10832.1,6904.38 c 0,184.2 0,368.38 0,552.58 l 4.3,21.46 c -1.4,0.3 -2.8,0.6 -4.3,0.91 0,22.2 0,44.41 0,66.64 -554.2,134.47 -1108.53,88.45 -1662.8,23.48 -65.3,-7.69 -130.56,-15.57 -195.84,-23.48 -619.57,-75.17 -1239.12,-150.32 -1858.68,0 0,-34.35 0,-68.68 0,-103.01 l -1.15,-6.15 c 0.37,-0.08 0.77,-0.17 1.15,-0.25 0,-189.21 0,-378.41 0,-567.62 l -1.39,-6.98 c 0.46,-0.1 0.95,-0.19 1.39,-0.31 0,-22.4 0,-44.84 0,-67.25 619.56,-150.32 1239.11,-75.13 1858.68,0 65.28,7.93 130.54,15.84 195.84,23.48 554.27,65.02 1108.6,111.01 1662.8,-23.48 0,29.19 0,58.35 0,87.53 l 4.1,21.62 c -1.3,0.28 -2.7,0.56 -4.1,0.83" />
        </g>
      </g>
      <g
         id="g1030"
         transform="matrix(0.125,0,0,-0.125,-496.06303,1619.2907)">
        <g
           clip-path="url(#clipPath1034)"
           id="g1032">
          <path
             inkscape:connector-curvature="0"
             id="path1054"
             style="fill:url(#linearGradient1038);fill-opacity:1;fill-rule:nonzero;stroke:none"
             d="m 7114.78,7545.97 c 0,-250.51 0,-501.03 0,-751.57 619.56,-150.32 1239.11,-75.13 1858.68,0 l 0,751.57 c -619.57,-75.17 -1239.12,-150.32 -1858.68,0" />
        </g>
      </g>
      <g
         id="g1056"
         transform="matrix(0.125,0,0,-0.125,-496.06303,1619.2907)">
        <g
           clip-path="url(#clipPath1060)"
           id="g1058">
          <path
             inkscape:connector-curvature="0"
             id="path1080"
             style="fill:url(#linearGradient1064);fill-opacity:1;fill-rule:nonzero;stroke:none"
             d="m 9169.3,7569.45 c -65.3,-7.69 -130.56,-15.57 -195.84,-23.48 l 0,-751.57 c 65.28,7.93 130.54,15.84 195.84,23.48 554.27,65.02 1108.6,111.01 1662.8,-23.48 0,250.54 0,501.06 0,751.57 -554.2,134.47 -1108.53,88.45 -1662.8,23.48" />
        </g>
      </g>
    </g>
    <g
       id="text6966"
       style="font-style:normal;font-weight:normal;font-size:25px;line-height:110.00000238%;font-family:Sans;letter-spacing:0px;word-spacing:0px;fill:#000000;fill-opacity:1;stroke:none;stroke-width:1px;stroke-linecap:butt;stroke-linejoin:miter;stroke-opacity:1"
       transform="translate(-4,-10)">
      <path
         id="path5848"
         style="font-style:normal;font-variant:normal;font-weight:normal;font-stretch:normal;font-size:21.25px;font-family:'Lily Script One';-inkscape-font-specification:'Lily Script One';letter-spacing:0.33000001px"
         d="m 195.74331,882.18856 -9.724,-1.4983 0.64353,-2.22293 3.36034,0.51778 2.77779,-9.37635 -3.89999,-0.36441 0.52227,-1.8546 q 4.01649,-0.39166 4.98132,-1.76955 l 2.56227,0.3948 -3.89834,13.43934 3.27633,0.50483 -0.60152,2.22939 z"
         inkscape:connector-curvature="0" />
      <path
         id="path5850"
         style="font-style:normal;font-variant:normal;font-weight:normal;font-stretch:normal;font-size:21.25px;font-family:'Lily Script One';-inkscape-font-specification:'Lily Script One';letter-spacing:0.33000001px"
         d="m 203.96213,871.49227 q 2.24978,-0.1107 3.53371,1.3367 1.30516,1.44636 1.40019,3.37777 0.12531,2.54692 -1.49849,4.13739 -1.60257,1.58943 -3.78868,1.69699 -1.50693,0.0742 -2.6781,-0.37884 -1.151,-0.47526 -1.87091,-1.26959 -1.82046,-1.97418 -1.97189,-5.0517 -0.023,-0.46694 -0.005,-0.95719 0.10603,-3.89867 2.03809,-6.14258 1.95224,-2.26618 5.26324,-2.42909 2.31345,-0.11382 3.83745,1.02391 l -0.89068,1.78843 q -1.25678,-0.89557 -2.84861,-0.81725 -1.50692,0.0741 -2.45538,1.12077 -0.92724,1.04558 -1.30298,2.48954 -0.46098,1.87367 -0.36073,3.91121 0.0679,1.37958 0.48613,2.52916 0.83545,2.27795 2.59707,2.19127 0.84898,-0.0418 1.50552,-0.96766 0.67672,-0.94815 0.64607,-2.43594 -0.007,-0.14857 -0.0157,-0.31836 -0.14933,-3.03508 -2.99339,-2.89515 -0.36081,0.0178 -1.03164,0.22097 -0.6496,0.20217 -0.74945,0.33473 l 0.0692,-1.62035 q 1.25918,-0.78533 3.08447,-0.87514 z"
         inkscape:connector-curvature="0" />
      <path
         id="path5852"
         style="font-style:normal;font-variant:normal;font-weight:normal;font-stretch:normal;font-size:21.25px;font-family:'Lily Script One';-inkscape-font-specification:'Lily Script One';letter-spacing:0.33000001px"
         d="m 224.58724,874.41778 q 1.74158,1.14199 1.83036,2.81839 0.0888,1.6764 -1.17293,2.76465 -1.26171,1.08825 -3.25641,1.19389 -1.29444,0.0686 -2.19818,-0.52197 -0.88365,-0.61288 -0.93423,-1.56779 -0.0506,-0.95491 0.55682,-1.54035 0.60626,-0.60667 1.55443,-0.78456 -0.41191,0.66021 -0.38044,1.25438 0.0303,0.57294 0.45263,0.91233 0.42229,0.33939 1.03768,0.3068 0.61539,-0.0326 0.99497,-0.49957 0.37846,-0.4882 0.347,-1.08236 -0.0517,-0.97613 -1.00463,-1.69174 -0.57533,-0.4164 -1.23217,-0.76465 -0.65796,-0.36947 -0.70152,-0.38845 -0.0882,-0.0592 -0.17538,-0.0971 -0.35837,0.46586 -1.03827,1.28922 -0.68103,0.80214 -1.08071,1.29146 -1.11978,1.35737 -1.22225,2.23527 -0.0334,0.17201 -0.008,0.66008 0.0247,0.46684 0.32756,0.96152 0.32406,0.49355 0.74073,0.72684 0.41667,0.23329 0.8065,0.3616 0.41218,0.14841 0.69141,0.19746 0.30046,0.0479 0.30158,0.0692 0.008,0.14854 -0.44886,0.36425 -0.85318,0.36438 -1.80809,0.41495 -0.93369,0.0494 -1.8609,-0.58239 -1.25901,-0.86964 -1.34105,-2.41872 -0.0506,-0.95491 0.38804,-1.91445 0.78238,-1.70126 3.83379,-4.75691 -0.82673,-0.74357 -0.87393,-1.63482 -0.0472,-0.89125 0.57803,-1.54148 0.64646,-0.65135 1.55893,-0.69967 0.82759,-0.0438 1.47782,0.5814 0.42678,0.42428 0.46275,1.10332 0.036,0.67905 -0.36471,1.55146 2.32451,0.89832 3.16123,1.42857 z m -4.7318,-2.15402 q 0.48119,-0.55748 0.46883,-0.7909 -0.0281,-0.53051 -0.49719,-0.54822 -0.5305,0.0281 -0.49904,0.62226 0.0191,0.36074 0.5274,0.71686 z"
         inkscape:connector-curvature="0" />
      <path
         id="path5854"
         style="font-style:normal;font-variant:normal;font-weight:normal;font-stretch:normal;font-size:21.25px;font-family:'Lily Script One';-inkscape-font-specification:'Lily Script One';letter-spacing:0.33000001px"
         d="m 231.02751,875.82158 q 1.30105,-0.34554 1.89608,-1.1644 0.61624,-0.81999 0.57803,-1.54148 -0.0393,-0.74271 -0.456,-0.976 -0.39658,-0.25563 -0.86342,-0.23091 -0.99736,0.0528 -1.70172,1.21795 -0.68427,1.14279 -0.60223,2.69187 0.0809,1.52786 0.84286,2.25358 0.78205,0.70337 1.86428,0.64606 1.59152,-0.0843 2.99728,-1.26529 1.40576,-1.181 2.22382,-3.01183 0.49045,0.4209 0.90725,1.0585 -0.61598,1.62861 -2.31756,3.25087 -0.85192,0.78991 -2.05797,1.32194 -1.18483,0.53091 -2.47926,0.59946 -2.12203,0.11239 -3.42136,-1.11687 -1.38983,-1.33086 -1.50559,-3.51654 -0.11575,-2.18569 1.43167,-3.90619 1.56865,-1.72162 3.86043,-1.84299 1.63397,-0.0865 2.69075,0.58101 1.05566,0.64632 1.14094,1.85475 0.0865,1.63396 -1.17518,2.72221 -1.24049,1.08713 -3.4897,1.61057 l -0.3634,-1.23627 z"
         inkscape:connector-curvature="0" />
      <path
         id="path5856"
         style="font-style:normal;font-variant:normal;font-weight:normal;font-stretch:normal;font-size:21.25px;font-family:'Lily Script One';-inkscape-font-specification:'Lily Script One';letter-spacing:0.33000001px"
         d="m 239.28045,869.91504 q 1.3787,-0.0839 1.65463,0.60183 0.95429,-0.76064 2.48147,-0.8536 1.52717,-0.093 2.70631,1.09134 1.17913,1.1843 1.28113,2.85994 0.0142,0.23332 0.008,0.48914 -0.0642,2.79281 -1.60832,4.35577 -1.54544,1.54174 -4.17557,1.70184 -0.5939,0.0362 -1.30289,-0.0697 l -0.32369,5.87427 -2.77861,0.16914 q 0.64609,-11.76975 0.85838,-15.97667 0.4351,-0.1968 1.19868,-0.24328 z m 5.14186,4.03003 q -0.0568,-0.93327 -0.52492,-1.62861 -0.46811,-0.69534 -1.35897,-0.64112 -1.20901,0.0736 -1.74979,1.68192 -0.23313,3.16501 -0.26578,3.67795 0.0175,0.63761 0.46111,0.92995 0.44358,0.29234 1.05869,0.2549 1.08175,-0.0658 1.72231,-1.08415 0.77484,-1.26066 0.65735,-3.19084 z"
         inkscape:connector-curvature="0" />
      <path
         id="path5858"
         style="font-style:normal;font-variant:normal;font-weight:normal;font-stretch:normal;font-size:21.25px;font-family:'Lily Script One';-inkscape-font-specification:'Lily Script One';letter-spacing:0.33000001px"
         d="m 252.06794,864.20225 q 0.0156,0.12653 -0.009,4.60462 l 3.10019,-0.38291 0.20057,1.62391 -3.31109,0.40896 0.002,0.53506 q 2.72277,1.76203 3.02493,4.20844 0.23704,1.91917 -0.64998,2.88518 -0.86594,0.96342 -2.23677,1.13273 -1.37083,0.16931 -2.09209,-0.46959 -0.72386,-0.66 -0.8515,-1.6934 -0.0287,-0.23199 -0.0203,-0.51136 l -0.0391,-5.69062 -0.0896,-0.0318 -1.70827,0.21099 q -0.0471,-0.2083 -0.10445,-0.67227 -0.0599,-0.48506 0.0726,-0.97248 l 1.81372,-0.22402 -0.0336,-5.81976 q 0.42205,-0.22342 1.16019,-0.31459 1.60282,-0.19797 1.77213,1.17287 z m 1.59146,11.15151 q -0.17974,-1.45519 -1.61964,-2.71191 0.008,3.18926 0.0684,3.67432 0.11722,0.94904 0.72882,0.8735 0.44288,-0.0547 0.68865,-0.49187 0.24316,-0.45827 0.13376,-1.34404 z"
         inkscape:connector-curvature="0" />
      <path
         id="path5860"
         style="font-style:normal;font-variant:normal;font-weight:normal;font-stretch:normal;font-size:21.25px;font-family:'Lily Script One';-inkscape-font-specification:'Lily Script One';letter-spacing:0.33000001px"
         d="m 260.03093,873.32495 q 1.2737,-0.43567 1.81002,-1.29413 0.5574,-0.86107 0.46884,-1.57813 -0.0912,-0.73814 -0.52313,-0.94172 -0.41348,-0.22728 -0.87746,-0.16998 -0.99122,0.12243 -1.61239,1.33396 -0.60269,1.18784 -0.41254,2.72739 0.18755,1.51846 0.99837,2.18913 0.82931,0.64697 1.90489,0.51412 1.58173,-0.19536 2.90147,-1.47176 1.31975,-1.2764 2.0078,-3.15994 0.51867,0.38558 0.97904,0.99247 -0.5006,1.66769 -2.08459,3.40496 -0.7946,0.84754 -1.9605,1.4626 -1.14481,0.61244 -2.43129,0.77134 -2.10897,0.26048 -3.49107,-0.87491 -1.47948,-1.23043 -1.74778,-3.40267 -0.2683,-2.17225 1.15504,-3.99673 1.44443,-1.82708 3.72212,-2.1084 1.62392,-0.20058 2.72479,0.39144 1.09826,0.57093 1.26783,1.77044 0.20057,1.62391 -0.98196,2.79772 -1.16145,1.1712 -3.36856,1.85062 l -0.44894,-1.20782 z"
         inkscape:connector-curvature="0" />
      <path
         id="path5862"
         style="font-style:normal;font-variant:normal;font-weight:normal;font-stretch:normal;font-size:21.25px;font-family:'Lily Script One';-inkscape-font-specification:'Lily Script One';letter-spacing:0.33000001px"
         d="m 272.81118,876.54258 -0.0634,-7.10078 q -0.0729,-0.59051 -0.41508,-0.93366 -0.32366,-0.36684 -1.04071,-0.27828 -0.71705,0.0886 -1.09507,0.84183 -0.38062,0.73218 -0.41338,1.50704 -0.0895,5.34252 -0.0515,6.34415 l -2.82602,0.34905 -0.0643,-10.05545 q 0.85711,-0.34139 1.32109,-0.39869 1.32865,-0.16411 1.56459,0.70603 0.924,-1.0134 2.1472,-1.16448 2.44641,-0.30216 3.30102,1.06968 0.85106,-1.60392 2.77023,-1.84096 1.41301,-0.17452 2.32668,0.46203 0.91106,0.61546 1.04651,1.71213 0.0391,0.31635 0.0115,1.13339 -0.0943,3.22337 -0.0266,3.7717 0.12243,0.99122 0.77621,0.91047 0.54834,-0.0677 1.07138,-0.86032 0.54152,-0.81628 0.73359,-2.38163 0.81082,0.67067 1.01315,1.09532 -0.64343,3.80506 -3.42727,4.1489 -1.30757,0.1615 -2.03924,-0.56177 -0.73168,-0.72326 -0.84108,-1.60903 l -0.0695,-4.72335 q -0.0703,-0.56942 -0.41248,-0.91257 -0.34214,-0.34315 -0.99592,-0.2624 -0.63269,0.0781 -1.05785,0.62312 -0.42515,0.54497 -0.52118,1.32765 0.0289,5.43494 -0.002,6.74486 l -2.72058,0.33602 z"
         inkscape:connector-curvature="0" />
      <path
         id="path5864"
         style="font-style:normal;font-variant:normal;font-weight:normal;font-stretch:normal;font-size:21.25px;font-family:'Lily Script One';-inkscape-font-specification:'Lily Script One';letter-spacing:0.33000001px"
         d="m 289.0858,864.21213 q 1.51846,-0.18754 2.76881,0.9213 1.25035,1.10884 1.45613,2.77493 0.0287,0.23199 0.0388,0.48767 0.10925,2.79141 -1.33493,4.44718 -1.44678,1.63467 -4.06191,1.95767 -1.0597,0.0881 -1.8817,-0.153 -0.82199,-0.24105 -1.26412,-0.70032 -0.83167,-0.83939 -0.92023,-1.55644 -0.0912,-0.73814 -0.0808,-2.3881 0.0313,-3.38688 -0.0657,-10.93315 0.42204,-0.22342 1.16018,-0.31459 1.68718,-0.20838 1.807,0.76175 l -0.0242,5.69843 q 0.90526,-0.81839 2.40263,-1.00333 z m -2.37025,7.67971 q 0.0599,0.48507 0.46011,0.77822 0.41869,0.26946 1.07247,0.18871 1.07558,-0.13285 1.64912,-1.21002 0.69511,-1.30631 0.45807,-3.22548 -0.11461,-0.92795 -0.62497,-1.5929 -0.51036,-0.66496 -1.39613,-0.55555 -1.20211,0.14847 -1.65768,1.66072 l -0.0124,1.28622 q -0.0111,2.16393 0.0514,2.67008 z"
         inkscape:connector-curvature="0" />
      <path
         id="path5866"
         style="font-style:normal;font-variant:normal;font-weight:normal;font-stretch:normal;font-size:21.25px;font-family:'Lily Script One';-inkscape-font-specification:'Lily Script One';letter-spacing:0.33000001px"
         d="m 300.68053,865.6372 q -0.10385,-0.92922 -0.96971,-0.83245 -0.84474,0.0944 -1.22886,1.24921 2.48141,1.54018 2.73158,3.77874 0.18173,1.62613 -0.63196,2.57236 -0.8137,0.94622 -2.1864,1.09963 -1.37271,0.15341 -2.10067,-0.62053 -0.73032,-0.79506 -0.87664,-2.10441 -0.0448,-0.40125 -0.045,-0.59368 l 0.0193,-6.52375 q 0.73431,-0.31727 1.51569,-0.4046 1.28823,-0.14396 1.39444,0.80637 l 0.005,0.0422 q 0.73382,-1.08698 2.04316,-1.2333 0.95034,-0.10621 1.52786,0.27828 0.57517,0.36337 0.65541,1.0814 0.0802,0.71803 -0.41691,1.244 -0.47841,0.50249 -1.34427,0.59926 -0.0422,0.005 -0.0845,0.009 0.0163,-0.23703 -0.007,-0.44821 z m -0.85149,4.24332 q -0.13689,-1.22488 -1.54089,-2.30815 -0.0403,3.08355 -0.0379,3.10467 0.0991,0.88698 0.81716,0.80674 0.92921,-0.10385 0.76165,-1.60326 z"
         inkscape:connector-curvature="0" />
      <path
         id="path5868"
         style="font-style:normal;font-variant:normal;font-weight:normal;font-stretch:normal;font-size:21.25px;font-family:'Lily Script One';-inkscape-font-specification:'Lily Script One';letter-spacing:0.33000001px"
         d="m 307.90103,867.76171 q 1.29317,-0.37393 1.87014,-1.20562 0.59816,-0.83327 0.54417,-1.55375 -0.0556,-0.74167 -0.47725,-0.96579 -0.40207,-0.2469 -0.86827,-0.21196 -0.99595,0.0746 -1.67466,1.25489 -0.6591,1.15749 -0.54319,2.7044 0.11433,1.52572 0.89197,2.2346 0.79725,0.68609 1.87797,0.60511 1.58929,-0.11909 2.96887,-1.33056 1.37959,-1.21147 2.1574,-3.05976 0.49954,0.41007 0.93019,1.0384 -0.5802,1.64169 -2.24588,3.30079 -0.83443,0.80836 -2.02855,1.36665 -1.17293,0.5567 -2.46556,0.65356 -2.11906,0.15879 -3.44497,-1.04174 -1.41862,-1.30014 -1.58217,-3.48277 -0.16355,-2.18263 1.34586,-3.93657 1.53061,-1.75553 3.81919,-1.92702 1.63168,-0.12226 2.70281,0.522 1.06955,0.62308 1.18125,1.82935 0.12226,1.63168 -1.11534,2.74727 -1.21641,1.11401 -3.45363,1.68653 l -0.39035,-1.22801 z"
         inkscape:connector-curvature="0" />
      <path
         id="path5870"
         style="font-style:normal;font-variant:normal;font-weight:normal;font-stretch:normal;font-size:21.25px;font-family:'Lily Script One';-inkscape-font-specification:'Lily Script One';letter-spacing:0.33000001px"
         d="m 330.56246,866.021 q 0.16684,0.52024 0.19066,0.83809 0.1699,2.2674 -0.73817,3.23044 -0.88689,0.96146 -2.51857,1.08373 -1.16548,0.0873 -2.78336,-0.17501 -1.61946,-0.28353 -2.25518,-0.2359 -0.0424,0.003 -0.0636,0.005 -1.29262,0.0969 -2.21658,0.848 l -0.92378,-1.80602 -0.0212,0.002 q 0.45935,-0.69502 1.88345,-2.16554 1.42251,-1.49171 1.71814,-1.8122 0.31523,-0.34326 0.87204,-0.87511 0.55523,-0.55303 0.87046,-0.8963 0.33643,-0.34485 0.80372,-0.93391 0.4657,-0.61026 0.72585,-1.11987 0.78203,-1.50765 0.69311,-2.69433 -0.0889,-1.18667 -0.74791,-1.73396 -0.65899,-0.54729 -1.44463,-0.50973 -1.03516,0.12019 -1.52205,0.73203 -0.4869,0.61185 -0.46045,1.24915 0.0264,0.63731 0.15622,0.94723 l -2.88193,0.21594 q -0.32409,-1.76571 0.62215,-3.07257 1.30917,-1.8668 4.04276,-2.07163 2.28858,-0.17149 3.81529,0.86483 1.5267,1.03632 1.68549,3.15538 0.15084,2.0131 -1.45872,4.13681 -0.54411,0.70137 -0.80053,0.9763 -1.93219,2.08395 -4.11493,3.95227 0.40738,0.0334 1.80541,0.20567 1.50398,0.16433 1.90661,0.13416 0.86881,-0.0651 1.27094,-0.67059 0.42332,-0.60708 0.61782,-1.70844 l 1.27143,-0.0953 z"
         inkscape:connector-curvature="0" />
      <path
         id="path5872"
         style="font-style:normal;font-variant:normal;font-weight:normal;font-stretch:normal;font-size:21.25px;font-family:'Lily Script One';-inkscape-font-specification:'Lily Script One';letter-spacing:0.33000001px"
         d="m 338.75454,870.61674 q -2.84583,-0.0975 -4.13809,-2.09792 -1.29227,-2.00042 -1.22487,-5.20875 0.0182,-0.53093 0.0723,-0.86928 0.45026,-3.83308 2.28719,-5.93892 1.83693,-2.10583 4.81019,-2.00397 0.0425,0.001 0.0637,0.002 2.41963,0.12542 3.84441,1.98154 1.42478,1.85613 1.36989,5.32003 -0.0982,2.86707 -1.28189,5.14412 -0.95383,1.77463 -2.49735,2.76361 -1.52155,0.96847 -3.3055,0.90735 z m 3.72834,-9.52542 q 0.15353,-4.48112 -2.09765,-4.55825 -1.5291,-0.0524 -2.43972,1.70246 -0.88939,1.75557 -1.24815,5.40043 -0.01,2.76379 0.44535,3.75745 0.1971,0.45326 0.63144,0.80835 0.45413,0.39828 1.1125,0.42083 1.29549,0.0444 2.24349,-1.56034 0.96997,-1.62524 1.29294,-4.84607 0.0416,-0.59392 0.0598,-1.12486 z"
         inkscape:connector-curvature="0" />
      <path
         id="path5874"
         style="font-style:normal;font-variant:normal;font-weight:normal;font-stretch:normal;font-size:21.25px;font-family:'Lily Script One';-inkscape-font-specification:'Lily Script One';letter-spacing:0.33000001px"
         d="m 356.87559,872.0262 -9.808,-0.77729 0.47788,-2.26433 3.38937,0.26861 2.07893,-9.55562 -3.91625,-0.0759 0.38411,-1.88805 q 3.97669,-0.68673 4.83731,-2.132 l 2.5844,0.20481 -2.89688,13.69018 3.30464,0.2619 -0.43551,2.26768 z"
         inkscape:connector-curvature="0" />
      <path
         id="path5876"
         style="font-style:normal;font-variant:normal;font-weight:normal;font-stretch:normal;font-size:21.25px;font-family:'Lily Script One';-inkscape-font-specification:'Lily Script One';letter-spacing:0.33000001px"
         d="m 365.37054,872.07432 q -1.01537,0.82352 -2.17913,0.71561 -0.63477,-0.0589 -1.25343,-0.52171 -0.5975,-0.46089 -0.71687,-1.475 -0.036,-0.30211 -0.009,-0.59834 0.0275,-0.29623 0.0894,-0.5039 0.0619,-0.20767 0.19521,-0.49408 0.13326,-0.28642 0.23359,-0.44785 0.10034,-0.16142 0.27788,-0.46508 0.20067,-0.32285 0.29904,-0.46312 l 1.56498,-2.60789 -3.04693,-0.28253 0.38033,-1.80008 3.70286,0.34336 2.60517,-4.38946 -2.79302,-0.25899 q -0.14981,0.92512 -0.9379,1.59898 -0.76496,0.65467 -1.84604,0.57576 -1.05796,-0.0981 -1.67816,-0.7745 -0.6202,-0.6764 -0.52602,-1.69205 0.0961,-1.0368 0.94967,-1.72594 0.87468,-0.68717 2.5251,-0.53413 l 8.42137,0.78089 q 0.0936,0.37148 0.0504,0.83699 -0.0412,0.44434 -0.44604,0.89765 l -3.04489,4.98892 1.92549,0.17854 -0.40149,1.79812 -2.60258,-0.24134 -1.66139,2.727 q -0.72741,1.17034 -0.81963,2.16482 -0.0922,0.99449 0.74153,1.66935 z m -3.77795,-13.11233 q -0.0275,0.29622 0.43803,0.33939 0.7829,0.0726 1.14583,-0.61935 -0.52898,-0.0491 -1.0368,-0.0961 -0.50782,-0.0471 -0.54706,0.3761 z"
         inkscape:connector-curvature="0" />
    </g>
  </g>
</svg>
